com\pastreams\services\streamsdb2\Water.class
com\pastreams\services\streamsdb2\Waterpropertydescription.class
com\pastreams\services\streamsdb2\Watertype.class
com\pastreams\polyline\LatLng.class
com\pastreams\services\repository\WaterRepo2.class
com\pastreams\services\streamsdb2\Coordinate.class
com\pastreams\polyline\PolyUtil.class
com\pastreams\services\controller\AppController.class
com\pastreams\services\streamservice\NewStreamService.class
com\pastreams\services\AppServices.class
com\pastreams\services\streamsdb2\Waterpropertyvalue.class
